…
### Decision Strategy
We obtain the optimal decision strategy from the z variable values.
```julia
Z = DecisionStrategy(z)
```

We use the function ```analysing_results``` to visualise the results in order to inspect the decision strategy. We use this tailor made function merely for convinience. From the printout, we can see that when the prior risk level is 12% the optimal decision strategy is to first perform TRS testing. At the second decision stage, GRS should be conducted if the updated risk estimate is between 16% and 28% and otherwise no further testing should be conducted. Treatment should be provided to those who have a final risk estimate greater than 18%. Notice that the blank spaces in the table are states which have a probability of zero, which means that given this data it is impossible for the patient to have their risk estimate updated to those risk levels.

```julia
sprobs = StateProbabilities(S, P, Z)
```
```julia
julia> println(analysing_results(Z, sprobs))
┌─────────────────┬────────┬────────┬────────┐
│ Information_set │     T1 │     T2 │     TD │
│          String │ String │ String │ String │
├─────────────────┼────────┼────────┼────────┤
│              0% │        │      3 │      2 │
│              1% │        │      3 │      2 │
│              2% │        │        │      2 │
│              3% │        │      3 │      2 │
│              4% │        │        │        │
│              5% │        │        │        │
│              6% │        │      3 │      2 │
│              7% │        │      3 │      2 │
│              8% │        │        │      2 │
│              9% │        │        │      2 │
│             10% │        │      3 │      2 │
│             11% │        │      3 │      2 │
│             12% │      1 │        │      2 │
│             13% │        │      3 │      2 │
│             14% │        │      3 │      2 │
│             15% │        │        │      2 │
│             16% │        │      2 │      2 │
│             17% │        │      2 │      2 │
│             18% │        │      2 │      1 │
│             19% │        │        │      1 │
│             20% │        │        │      1 │
│             21% │        │      2 │      1 │
│             22% │        │      2 │      1 │
│             23% │        │      2 │      1 │
│             24% │        │        │      1 │
│             25% │        │        │      1 │
│             26% │        │        │      1 │
│             27% │        │        │      1 │
│             28% │        │      3 │      1 │
│             29% │        │      3 │      1 │
│             30% │        │        │      1 │
│        ⋮        │   ⋮     │   ⋮    │   ⋮    │
└─────────────────┴────────┴────────┴────────┘
                               70 rows omitted
```
…
